simulation/qsim/parte1-vhdl.msim.vcd
$comment
	File created using the following command:
		vcd file parte1-vhdl.msim.vcd -direction
$end
$date
	Wed Nov 22 22:09:21 2023
$end
$version
	ModelSim Version 10.5b
$end
$timescale
	1ps
$end

$scope module teste_vhd_vec_tst $end
$var wire 1 ! clk $end
$var wire 1 " entrada $end
$var wire 1 # reset_signal $end
$var wire 1 $ saida [1] $end
$var wire 1 % saida [0] $end

$scope module i1 $end
$var wire 1 & gnd $end
$var wire 1 ' vcc $end
$var wire 1 ( unknown $end
$var wire 1 ) devoe $end
$var wire 1 * devclrn $end
$var wire 1 + devpor $end
$var wire 1 , ww_devoe $end
$var wire 1 - ww_devclrn $end
$var wire 1 . ww_devpor $end
$var wire 1 / ww_clk $end
$var wire 1 0 ww_reset_signal $end
$var wire 1 1 ww_entrada $end
$var wire 1 2 ww_saida [1] $end
$var wire 1 3 ww_saida [0] $end
$var wire 1 4 \entrada~input_o\ $end
$var wire 1 5 \saida[0]~output_o\ $end
$var wire 1 6 \saida[1]~output_o\ $end
$var wire 1 7 \clk~input_o\ $end
$var wire 1 8 \reset_signal~input_o\ $end
$var wire 1 9 \estado_atual.C~q\ $end
$var wire 1 : \estado_atual.D~q\ $end
$var wire 1 ; \estado_atual.ResetState~q\ $end
$var wire 1 < \proximo_estado.A~combout\ $end
$var wire 1 = \estado_atual.A~q\ $end
$var wire 1 > \estado_atual.B~q\ $end
$var wire 1 ? \saida~3_combout\ $end
$var wire 1 @ \saida~4_combout\ $end
$var wire 1 A \ALT_INV_estado_atual.B~q\ $end
$var wire 1 B \ALT_INV_estado_atual.D~q\ $end
$var wire 1 C \ALT_INV_estado_atual.C~q\ $end
$var wire 1 D \ALT_INV_estado_atual.ResetState~q\ $end
$var wire 1 E \ALT_INV_reset_signal~input_o\ $end
$upscope $end
$upscope $end
$enddefinitions $end
#0
$dumpvars
0!
0"
1#
0&
1'
x(
1)
1*
1+
1,
1-
1.
0/
10
01
04
05
06
07
18
09
0:
0;
1<
0=
0>
0?
0@
1A
1B
1C
1D
0E
02
03
0$
0%
$end
#40000
1!
1/
17
#80000
0!
0/
07
#120000
1!
1/
17
#150000
0#
00
08
1E
#160000
0!
0/
07
#200000
1!
1/
17
1;
1=
0D
0<
#240000
0!
0/
07
#280000
1!
1/
17
0=
1>
0A
1?
15
13
1%
#320000
0!
0/
07
#360000
1!
1/
17
19
0>
1A
0C
1@
0?
05
16
03
12
0%
1$
#400000
0!
0/
07
#440000
1!
1/
17
09
1:
0B
1C
1<
1?
15
13
1%
#480000
0!
0/
07
#520000
1!
1/
17
0:
1=
1B
0<
0?
0@
06
05
02
03
0%
0$
#560000
0!
0/
07
#600000
1!
1/
17
0=
1>
0A
1?
15
13
1%
#640000
0!
0/
07
#680000
1!
1/
17
19
0>
1A
0C
1@
0?
05
16
03
12
0%
1$
#720000
0!
0/
07
#760000
1!
1/
17
09
1:
0B
1C
1<
1?
15
13
1%
#800000
0!
0/
07
#840000
1!
1/
17
0:
1=
1B
0<
0?
0@
06
05
02
03
0%
0$
#880000
0!
0/
07
#920000
1!
1/
17
0=
1>
0A
1?
15
13
1%
#960000
0!
0/
07
